…
The result shows a minimum value which is a negative number which is
incorrect. Trip duration values cannot be negative. This tells us that
there is definitely some incorrect data in the start and end date
columns. Let us isolate all the values where trip duration is negative
and explore it further.

``` r
## creating a new data frame to store and observe negative trip duration values
durations <- CyclisticDataRaw %>% filter(CyclisticDataRaw$trip_duration_mins < 0)

durations %>% select(started_at, ended_at, trip_duration_mins)
```

    ## # A tibble: 272 × 3
    ##    started_at          ended_at            trip_duration_mins
    ##    <dttm>              <dttm>                           <dbl>
    ##  1 2023-02-04 13:08:08 2023-02-04 13:04:52            -3.27  
    ##  2 2023-04-04 17:15:08 2023-04-04 17:15:05            -0.05  
    ##  3 2023-04-19 14:47:18 2023-04-19 14:47:14            -0.0667
    ##  4 2023-04-27 07:51:14 2023-04-27 07:51:09            -0.0833
    ##  5 2023-04-06 23:09:31 2023-04-06 23:00:35            -8.93  
    ##  6 2023-05-29 17:34:21 2023-05-29 17:34:09            -0.2   
    ##  7 2023-05-29 16:57:34 2023-05-29 16:57:27            -0.117 
    ##  8 2023-05-26 15:39:47 2023-05-26 15:38:17            -1.5   
    ##  9 2023-05-26 15:38:53 2023-05-26 15:38:17            -0.6   
    ## 10 2023-05-07 15:54:58 2023-05-07 15:54:47            -0.183 
    ## # ℹ 262 more rows
…
